M48
INCH,TZ
T1C0.0472
T2C0.0669
%
G90
G05
T1
X38189Y109134
X38189Y105197
X39173Y109134
X39173Y105197
X41142Y107165
X70472Y106457
X72441Y108425
X72441Y104488
X73425Y108425
X73425Y104488
T2
X39193Y102441
X41949Y102441
T0
M30
