EESchema Schematic File Version 4
EELAYER 30 0
EELAYER END
$Descr A4 11693 8268
encoding utf-8
Sheet 2 3
Title ""
Date ""
Rev ""
Comp ""
Comment1 ""
Comment2 ""
Comment3 ""
Comment4 ""
$EndDescr
$Comp
L SDR_SSB-rescue:SI5351Module_2-VFO U?
U 1 1 5F78B691
P 7050 4000
F 0 "U?" H 7050 4050 50  0000 L CNN
F 1 "SI5351Module" H 6850 3900 50  0000 L CNN
F 2 "VFO_footprint:SI5351 Module" H 7050 4000 50  0001 C CNN
F 3 "" H 7050 4000 50  0001 C CNN
	1    7050 4000
	-1   0    0    1   
$EndComp
$Comp
L Oscillator:Si5351A-B-GT U?
U 1 1 5F78B6AF
P 3200 4050
F 0 "U?" H 2900 3550 50  0000 C CNN
F 1 "Si5351A" H 3150 4050 50  0000 C CNN
F 2 "Package_SO:MSOP-10_3x3mm_P0.5mm" H 3200 3250 50  0001 C CNN
F 3 "https://www.silabs.com/documents/public/data-sheets/Si5351-B.pdf" H 2850 3950 50  0001 C CNN
	1    3200 4050
	1    0    0    -1  
$EndComp
$Comp
L Device:Crystal Y?
U 1 1 5F78B6B5
P 2500 3750
F 0 "Y?" H 2450 3900 50  0000 L CNN
F 1 "27Mhz" H 2350 3600 50  0000 L CNN
F 2 "Crystal:Crystal_HC49-U_Vertical" H 2500 3750 50  0001 C CNN
F 3 "~" H 2500 3750 50  0001 C CNN
	1    2500 3750
	-1   0    0    1   
$EndComp
$Comp
L pspice:DIODE D?
U 1 1 5F78B6C3
P 3150 2600
F 0 "D?" V 3104 2728 50  0000 L CNN
F 1 "1N4148" V 3195 2728 50  0000 L CNN
F 2 "Diode_THT:D_A-405_P2.54mm_Vertical_KathodeUp" H 3150 2600 50  0001 C CNN
F 3 "~" H 3150 2600 50  0001 C CNN
	1    3150 2600
	0    1    1    0   
$EndComp
$Comp
L pspice:DIODE D?
U 1 1 5F78B6C9
P 3150 2200
F 0 "D?" V 3104 2328 50  0000 L CNN
F 1 "1N4148" V 3195 2328 50  0000 L CNN
F 2 "Diode_THT:D_A-405_P2.54mm_Vertical_KathodeUp" H 3150 2200 50  0001 C CNN
F 3 "~" H 3150 2200 50  0001 C CNN
	1    3150 2200
	0    1    1    0   
$EndComp
Wire Wire Line
	3150 2000 3150 1950
Wire Wire Line
	3150 3450 3100 3450
Wire Wire Line
	3100 3450 3100 3550
Wire Wire Line
	3150 3450 3300 3450
Wire Wire Line
	3300 3450 3300 3550
Connection ~ 3150 3450
$Comp
L pspice:CAP C?
U 1 1 5F78B6D6
P 3400 3200
F 0 "C?" V 3600 3250 50  0000 C CNN
F 1 "100nF" V 3700 3250 50  0000 C CNN
F 2 "Capacitor_THT:C_Disc_D3.0mm_W2.0mm_P2.50mm" H 3400 3200 50  0001 C CNN
F 3 "~" H 3400 3200 50  0001 C CNN
	1    3400 3200
	0    -1   -1   0   
$EndComp
$Comp
L power:GNDPWR #PWR?
U 1 1 5F78B6DF
P 4150 4650
F 0 "#PWR?" H 4150 4450 50  0001 C CNN
F 1 "GNDPWR" H 4154 4496 50  0000 C CNN
F 2 "" H 4150 4600 50  0001 C CNN
F 3 "" H 4150 4600 50  0001 C CNN
	1    4150 4650
	1    0    0    -1  
$EndComp
$Comp
L Device:R R?
U 1 1 5F78B6ED
P 1750 4050
F 0 "R?" H 1820 4096 50  0000 L CNN
F 1 "1k" H 1820 4005 50  0000 L CNN
F 2 "Resistor_THT:R_Axial_DIN0204_L3.6mm_D1.6mm_P1.90mm_Vertical" V 1680 4050 50  0001 C CNN
F 3 "~" H 1750 4050 50  0001 C CNN
	1    1750 4050
	1    0    0    -1  
$EndComp
$Comp
L Device:R R?
U 1 1 5F78B6F3
P 2000 4050
F 0 "R?" H 2070 4096 50  0000 L CNN
F 1 "1k" H 2070 4005 50  0000 L CNN
F 2 "Resistor_THT:R_Axial_DIN0204_L3.6mm_D1.6mm_P1.90mm_Vertical" V 1930 4050 50  0001 C CNN
F 3 "~" H 2000 4050 50  0001 C CNN
	1    2000 4050
	1    0    0    -1  
$EndComp
Wire Wire Line
	1750 3450 1750 3900
Wire Wire Line
	2000 3450 2000 3900
Connection ~ 2000 3450
Connection ~ 3100 3450
Wire Wire Line
	1750 4250 2700 4250
Wire Wire Line
	1750 4200 1750 4250
Wire Wire Line
	2000 4200 2000 4350
Wire Wire Line
	2000 4350 2700 4350
Wire Wire Line
	1750 3450 2000 3450
Text GLabel 3700 3850 2    50   Output ~ 0
SI5351_0
Text GLabel 3700 4050 2    50   Output ~ 0
SI5351_1
Text GLabel 3700 4250 2    50   Output ~ 0
SI5351_2
Text GLabel 7650 4400 2    50   Output ~ 0
SI5351_0
Text GLabel 7650 4300 2    50   Output ~ 0
SI5351_1
Text GLabel 7650 4200 2    50   Output ~ 0
SI5351_2
Text GLabel 7650 3900 2    50   Input ~ 0
I2C_SDA
Text GLabel 7650 4050 2    50   Input ~ 0
I2C_SCL
Text GLabel 1600 4350 0    50   Input ~ 0
I2C_SDA
Text GLabel 1600 4250 0    50   Input ~ 0
I2C_SCL
Wire Wire Line
	2450 3750 2650 3750
Wire Wire Line
	2000 3450 3100 3450
Wire Wire Line
	3650 3200 4150 3200
Wire Wire Line
	4150 3200 4150 4550
Wire Wire Line
	3200 4550 4150 4550
Connection ~ 4150 4550
Wire Wire Line
	4150 4550 4150 4650
Connection ~ 3150 3200
Wire Wire Line
	3150 3200 3150 3450
Wire Wire Line
	3150 2800 3150 3200
Wire Wire Line
	1600 4250 1750 4250
Connection ~ 1750 4250
Wire Wire Line
	1600 4350 2000 4350
Connection ~ 2000 4350
$Comp
L power:+5V #PWR?
U 1 1 5F7B1A4F
P 3150 1950
F 0 "#PWR?" H 3150 1800 50  0001 C CNN
F 1 "+5V" H 3165 2123 50  0000 C CNN
F 2 "" H 3150 1950 50  0001 C CNN
F 3 "" H 3150 1950 50  0001 C CNN
	1    3150 1950
	1    0    0    -1  
$EndComp
$Comp
L power:+5V #PWR?
U 1 1 5F7B254A
P 7750 3450
F 0 "#PWR?" H 7750 3300 50  0001 C CNN
F 1 "+5V" H 7765 3623 50  0000 C CNN
F 2 "" H 7750 3450 50  0001 C CNN
F 3 "" H 7750 3450 50  0001 C CNN
	1    7750 3450
	1    0    0    -1  
$EndComp
Wire Wire Line
	7750 3600 7750 3450
Wire Wire Line
	7650 3600 7750 3600
$Comp
L power:GNDPWR #PWR?
U 1 1 5F7B3D69
P 8250 4750
F 0 "#PWR?" H 8250 4550 50  0001 C CNN
F 1 "GNDPWR" H 8254 4596 50  0000 C CNN
F 2 "" H 8250 4700 50  0001 C CNN
F 3 "" H 8250 4700 50  0001 C CNN
	1    8250 4750
	1    0    0    -1  
$EndComp
Wire Wire Line
	7650 3750 8250 3750
Wire Wire Line
	8250 3750 8250 4750
Connection ~ 2650 3750
Wire Wire Line
	2650 3750 2700 3750
Wire Wire Line
	2350 3750 2350 3950
Wire Wire Line
	2350 3950 2700 3950
$EndSCHEMATC
