(kicad_pcb (version 20171130) (host pcbnew "(5.1.5)-3")

  (general
    (thickness 1.6)
    (drawings 32)
    (tracks 0)
    (zones 0)
    (modules 4)
    (nets 2)
  )

  (page A4)
  (layers
    (0 F.Cu signal hide)
    (31 B.Cu signal hide)
    (32 B.Adhes user)
    (33 F.Adhes user)
    (34 B.Paste user)
    (35 F.Paste user)
    (36 B.SilkS user)
    (37 F.SilkS user)
    (38 B.Mask user)
    (39 F.Mask user)
    (40 Dwgs.User user)
    (41 Cmts.User user)
    (42 Eco1.User user)
    (43 Eco2.User user)
    (44 Edge.Cuts user)
    (45 Margin user)
    (46 B.CrtYd user)
    (47 F.CrtYd user)
    (48 B.Fab user)
    (49 F.Fab user)
  )

  (setup
    (last_trace_width 0.25)
    (user_trace_width 0.5)
    (trace_clearance 0.2)
    (zone_clearance 0.508)
    (zone_45_only no)
    (trace_min 0.2)
    (via_size 0.8)
    (via_drill 0.4)
    (via_min_size 0.4)
    (via_min_drill 0.3)
    (user_via 1 0.5)
    (uvia_size 0.3)
    (uvia_drill 0.1)
    (uvias_allowed no)
    (uvia_min_size 0.2)
    (uvia_min_drill 0.1)
    (edge_width 0.1)
    (segment_width 0.2)
    (pcb_text_width 0.3)
    (pcb_text_size 1.5 1.5)
    (mod_edge_width 0.15)
    (mod_text_size 1 1)
    (mod_text_width 0.15)
    (pad_size 3.2 3.2)
    (pad_drill 3.2)
    (pad_to_mask_clearance 0)
    (aux_axis_origin 0 0)
    (visible_elements 7FFFFFFF)
    (pcbplotparams
      (layerselection 0x010f0_ffffffff)
      (usegerberextensions true)
      (usegerberattributes false)
      (usegerberadvancedattributes false)
      (creategerberjobfile false)
      (excludeedgelayer true)
      (linewidth 0.100000)
      (plotframeref false)
      (viasonmask false)
      (mode 1)
      (useauxorigin false)
      (hpglpennumber 1)
      (hpglpenspeed 20)
      (hpglpendiameter 15.000000)
      (psnegative false)
      (psa4output false)
      (plotreference true)
      (plotvalue true)
      (plotinvisibletext false)
      (padsonsilk false)
      (subtractmaskfromsilk false)
      (outputformat 1)
      (mirror false)
      (drillshape 0)
      (scaleselection 1)
      (outputdirectory "Face plate gerber/"))
  )

  (net 0 "")
  (net 1 GNDPWR)

  (net_class Default "This is the default net class."
    (clearance 0.2)
    (trace_width 0.25)
    (via_dia 0.8)
    (via_drill 0.4)
    (uvia_dia 0.3)
    (uvia_drill 0.1)
    (add_net GNDPWR)
  )

  (module TestPoint:TestPoint_Plated_Hole_D3.0mm (layer F.Cu) (tedit 5A0F774F) (tstamp 5F249494)
    (at 186.69 -193.04)
    (descr "Plated Hole as test Point, diameter 3.0mm")
    (tags "test point plated hole")
    (path /5F24646A)
    (attr virtual)
    (fp_text reference TP4 (at 0 -3.048) (layer F.SilkS) hide
      (effects (font (size 1 1) (thickness 0.15)))
    )
    (fp_text value TestPoint (at 0 3) (layer F.Fab)
      (effects (font (size 1 1) (thickness 0.15)))
    )
    (fp_circle (center 0 0) (end 0 -2.286) (layer F.SilkS) (width 0.12))
    (fp_circle (center 0 0) (end 2.5 0) (layer F.CrtYd) (width 0.05))
    (fp_text user %R (at 0 -3.05) (layer F.Fab)
      (effects (font (size 1 1) (thickness 0.15)))
    )
    (pad 1 thru_hole circle (at 0 0) (size 4 4) (drill 3) (layers *.Cu *.Mask)
      (net 1 GNDPWR))
  )

  (module TestPoint:TestPoint_Plated_Hole_D3.0mm (layer F.Cu) (tedit 5A0F774F) (tstamp 5F24948C)
    (at 96.52 -193.04)
    (descr "Plated Hole as test Point, diameter 3.0mm")
    (tags "test point plated hole")
    (path /5F245EBA)
    (attr virtual)
    (fp_text reference TP3 (at 0 -3.048) (layer F.SilkS) hide
      (effects (font (size 1 1) (thickness 0.15)))
    )
    (fp_text value TestPoint (at 0 3) (layer F.Fab)
      (effects (font (size 1 1) (thickness 0.15)))
    )
    (fp_circle (center 0 0) (end 0 -2.286) (layer F.SilkS) (width 0.12))
    (fp_circle (center 0 0) (end 2.5 0) (layer F.CrtYd) (width 0.05))
    (fp_text user %R (at 0 -3.05) (layer F.Fab)
      (effects (font (size 1 1) (thickness 0.15)))
    )
    (pad 1 thru_hole circle (at 0 0) (size 4 4) (drill 3) (layers *.Cu *.Mask)
      (net 1 GNDPWR))
  )

  (module TestPoint:TestPoint_Plated_Hole_D3.0mm (layer F.Cu) (tedit 5A0F774F) (tstamp 5F249484)
    (at 186.69 -283.21)
    (descr "Plated Hole as test Point, diameter 3.0mm")
    (tags "test point plated hole")
    (path /5F24598E)
    (attr virtual)
    (fp_text reference TP2 (at 0 -3.048) (layer F.SilkS) hide
      (effects (font (size 1 1) (thickness 0.15)))
    )
    (fp_text value TestPoint (at 0 3) (layer F.Fab)
      (effects (font (size 1 1) (thickness 0.15)))
    )
    (fp_circle (center 0 0) (end 0 -2.286) (layer F.SilkS) (width 0.12))
    (fp_circle (center 0 0) (end 2.5 0) (layer F.CrtYd) (width 0.05))
    (fp_text user %R (at 0 -3.05) (layer F.Fab)
      (effects (font (size 1 1) (thickness 0.15)))
    )
    (pad 1 thru_hole circle (at 0 0) (size 4 4) (drill 3) (layers *.Cu *.Mask)
      (net 1 GNDPWR))
  )

  (module TestPoint:TestPoint_Plated_Hole_D3.0mm (layer F.Cu) (tedit 5A0F774F) (tstamp 5F2494E8)
    (at 96.52 -283.337)
    (descr "Plated Hole as test Point, diameter 3.0mm")
    (tags "test point plated hole")
    (path /5F243DB1)
    (attr virtual)
    (fp_text reference TP1 (at 0 -3.048) (layer F.SilkS) hide
      (effects (font (size 1 1) (thickness 0.15)))
    )
    (fp_text value TestPoint (at 0 3) (layer F.Fab)
      (effects (font (size 1 1) (thickness 0.15)))
    )
    (fp_circle (center 0 0) (end 0 -2.286) (layer F.SilkS) (width 0.12))
    (fp_circle (center 0 0) (end 2.5 0) (layer F.CrtYd) (width 0.05))
    (fp_text user %R (at 0 -3.05) (layer F.Fab)
      (effects (font (size 1 1) (thickness 0.15)))
    )
    (pad 1 thru_hole circle (at 0 0) (size 4 4) (drill 3) (layers *.Cu *.Mask)
      (net 1 GNDPWR))
  )

  (gr_text "SDR SSB HF TRANSCEIVER" (at 150.749 -280.67) (layer F.SilkS)
    (effects (font (size 2 2) (thickness 0.15) italic))
  )
  (gr_line (start 107 -259) (end 107 -278) (layer F.SilkS) (width 0.15) (tstamp 5F237830))
  (gr_line (start 175 -259) (end 107 -259) (layer F.SilkS) (width 0.15))
  (gr_line (start 175 -260) (end 175 -259) (layer F.SilkS) (width 0.15))
  (gr_line (start 175 -278) (end 175 -260) (layer F.SilkS) (width 0.15))
  (gr_line (start 107 -278) (end 175 -278) (layer F.SilkS) (width 0.15))
  (gr_text SPK/MIC (at 100.22 -262.37) (layer F.SilkS)
    (effects (font (size 1.2 1.2) (thickness 0.15)))
  )
  (gr_circle (center 140.73 -240.45) (end 145.13 -238.46) (layer Edge.Cuts) (width 0.1))
  (gr_circle (center 159.78 -240.3) (end 162.05 -238.58) (layer Edge.Cuts) (width 0.1) (tstamp 5F249500))
  (gr_circle (center 123.17 -240.47) (end 120.37 -239.29) (layer Edge.Cuts) (width 0.1))
  (gr_line (start 149.42 -189.23) (end 190.5 -189.23) (layer Edge.Cuts) (width 0.1) (tstamp 5F234F65))
  (gr_line (start 92.71 -189.23) (end 100.08 -189.24) (layer Edge.Cuts) (width 0.1) (tstamp 5F234F2D))
  (gr_line (start 100.1 -204.28) (end 100.08 -189.24) (layer Edge.Cuts) (width 0.1))
  (gr_line (start 149.42 -204.25) (end 100.1 -204.28) (layer Edge.Cuts) (width 0.1))
  (gr_line (start 149.42 -189.23) (end 149.42 -204.25) (layer Edge.Cuts) (width 0.1))
  (gr_line (start 173.99 -276.86) (end 173.99 -260.35) (layer Edge.Cuts) (width 0.1))
  (gr_line (start 107.95 -276.86) (end 173.99 -276.86) (layer Edge.Cuts) (width 0.1))
  (gr_line (start 107.95 -260.35) (end 107.95 -276.86) (layer Edge.Cuts) (width 0.1))
  (gr_line (start 173.99 -260.35) (end 107.95 -260.35) (layer Edge.Cuts) (width 0.1))
  (gr_text "uSDX " (at 117.729 -282.321) (layer F.SilkS)
    (effects (font (size 5 5) (thickness 0.8)))
  )
  (gr_text EXIT (at 160.11 -234.26) (layer F.SilkS)
    (effects (font (size 2 2) (thickness 0.15)))
  )
  (gr_text SELECT (at 123.31 -233.72) (layer F.SilkS)
    (effects (font (size 2 2) (thickness 0.15)))
  )
  (gr_text TUNE (at 140.8 -228.1) (layer F.SilkS)
    (effects (font (size 2 2) (thickness 0.15)))
  )
  (gr_text "uSDX BAND LPF MODULE" (at 124.587 -205.867) (layer F.SilkS)
    (effects (font (size 1.2 1.2) (thickness 0.15)))
  )
  (gr_text MIC/PTT (at 100.22 -272.5) (layer F.SilkS)
    (effects (font (size 1.2 1.2) (thickness 0.15)))
  )
  (gr_text HEADPHONE (at 183.07 -268.79) (layer F.SilkS)
    (effects (font (size 1.2 1.2) (thickness 0.15)))
  )
  (dimension 97.79 (width 0.15) (layer F.SilkS)
    (gr_text "97.790 mm" (at 141.605 -298.48) (layer F.SilkS)
      (effects (font (size 1 1) (thickness 0.15)))
    )
    (feature1 (pts (xy 190.5 -289.56) (xy 190.5 -297.766421)))
    (feature2 (pts (xy 92.71 -289.56) (xy 92.71 -297.766421)))
    (crossbar (pts (xy 92.71 -297.18) (xy 190.5 -297.18)))
    (arrow1a (pts (xy 190.5 -297.18) (xy 189.373496 -296.593579)))
    (arrow1b (pts (xy 190.5 -297.18) (xy 189.373496 -297.766421)))
    (arrow2a (pts (xy 92.71 -297.18) (xy 93.836504 -296.593579)))
    (arrow2b (pts (xy 92.71 -297.18) (xy 93.836504 -297.766421)))
  )
  (gr_line (start 92.71 -189.23) (end 92.71 -287.02) (layer Edge.Cuts) (width 0.1) (tstamp 5ECAAE9F))
  (gr_line (start 190.5 -287.02) (end 190.5 -189.23) (layer Edge.Cuts) (width 0.1) (tstamp 5F2494FD))
  (gr_line (start 184.15 -287.02) (end 190.5 -287.02) (layer Edge.Cuts) (width 0.1))
  (dimension 97.79 (width 0.15) (layer F.SilkS) (tstamp 5F2494F8)
    (gr_text "97.790 mm" (at 200.69 -238.125 90) (layer F.SilkS) (tstamp 5F2494F8)
      (effects (font (size 1 1) (thickness 0.15)))
    )
    (feature1 (pts (xy 193.04 -287.02) (xy 199.976421 -287.02)))
    (feature2 (pts (xy 193.04 -189.23) (xy 199.976421 -189.23)))
    (crossbar (pts (xy 199.39 -189.23) (xy 199.39 -287.02)))
    (arrow1a (pts (xy 199.39 -287.02) (xy 199.976421 -285.893496)))
    (arrow1b (pts (xy 199.39 -287.02) (xy 198.803579 -285.893496)))
    (arrow2a (pts (xy 199.39 -189.23) (xy 199.976421 -190.356504)))
    (arrow2b (pts (xy 199.39 -189.23) (xy 198.803579 -190.356504)))
  )
  (gr_line (start 92.71 -287.02) (end 184.15 -287.02) (layer Edge.Cuts) (width 0.1))

  (zone (net 1) (net_name GNDPWR) (layer F.Cu) (tstamp 5F24411E) (hatch edge 0.508)
    (connect_pads (clearance 0.508))
    (min_thickness 0.254)
    (fill yes (arc_segments 32) (thermal_gap 0.508) (thermal_bridge_width 0.508))
    (polygon
      (pts
        (xy 190.5 -189.103) (xy 92.71 -189.484) (xy 92.456 -286.893) (xy 190.627 -286.893)
      )
    )
    (filled_polygon
      (pts
        (xy 189.815001 -189.915) (xy 150.105 -189.915) (xy 150.105 -191.192501) (xy 185.022106 -191.192501) (xy 185.238228 -190.825742)
        (xy 185.698105 -190.585062) (xy 186.196098 -190.438725) (xy 186.713071 -190.392352) (xy 187.229159 -190.447727) (xy 187.724526 -190.602721)
        (xy 188.141772 -190.825742) (xy 188.357894 -191.192501) (xy 186.69 -192.860395) (xy 185.022106 -191.192501) (xy 150.105 -191.192501)
        (xy 150.105 -193.016929) (xy 184.042352 -193.016929) (xy 184.097727 -192.500841) (xy 184.252721 -192.005474) (xy 184.475742 -191.588228)
        (xy 184.842501 -191.372106) (xy 186.510395 -193.04) (xy 186.869605 -193.04) (xy 188.537499 -191.372106) (xy 188.904258 -191.588228)
        (xy 189.144938 -192.048105) (xy 189.291275 -192.546098) (xy 189.337648 -193.063071) (xy 189.282273 -193.579159) (xy 189.127279 -194.074526)
        (xy 188.904258 -194.491772) (xy 188.537499 -194.707894) (xy 186.869605 -193.04) (xy 186.510395 -193.04) (xy 184.842501 -194.707894)
        (xy 184.475742 -194.491772) (xy 184.235062 -194.031895) (xy 184.088725 -193.533902) (xy 184.042352 -193.016929) (xy 150.105 -193.016929)
        (xy 150.105 -194.887499) (xy 185.022106 -194.887499) (xy 186.69 -193.219605) (xy 188.357894 -194.887499) (xy 188.141772 -195.254258)
        (xy 187.681895 -195.494938) (xy 187.183902 -195.641275) (xy 186.666929 -195.687648) (xy 186.150841 -195.632273) (xy 185.655474 -195.477279)
        (xy 185.238228 -195.254258) (xy 185.022106 -194.887499) (xy 150.105 -194.887499) (xy 150.105 -204.216152) (xy 150.108313 -204.249582)
        (xy 150.105 -204.28343) (xy 150.105 -204.283647) (xy 150.101609 -204.318079) (xy 150.095169 -204.383872) (xy 150.095109 -204.38407)
        (xy 150.095088 -204.384283) (xy 150.075149 -204.450013) (xy 150.056078 -204.513019) (xy 150.055982 -204.5132) (xy 150.055919 -204.513406)
        (xy 150.023495 -204.574068) (xy 149.992544 -204.632058) (xy 149.992413 -204.632217) (xy 149.992312 -204.632407) (xy 149.948494 -204.685798)
        (xy 149.907006 -204.736414) (xy 149.906849 -204.736543) (xy 149.906711 -204.736711) (xy 149.853356 -204.780499) (xy 149.802754 -204.822079)
        (xy 149.802573 -204.822176) (xy 149.802407 -204.822312) (xy 149.74186 -204.854675) (xy 149.683792 -204.885758) (xy 149.683595 -204.885818)
        (xy 149.683406 -204.885919) (xy 149.618093 -204.905731) (xy 149.554693 -204.925006) (xy 149.554486 -204.925027) (xy 149.554283 -204.925088)
        (xy 149.486707 -204.931744) (xy 149.454063 -204.934979) (xy 149.453859 -204.934979) (xy 149.42 -204.938314) (xy 149.386557 -204.93502)
        (xy 100.134309 -204.964979) (xy 100.100915 -204.968313) (xy 100.067019 -204.96502) (xy 100.06677 -204.96502) (xy 100.03319 -204.961733)
        (xy 99.966615 -204.955265) (xy 99.966378 -204.955193) (xy 99.966128 -204.955169) (xy 99.901179 -204.93551) (xy 99.83744 -204.916268)
        (xy 99.837222 -204.916152) (xy 99.836981 -204.916079) (xy 99.777135 -204.884137) (xy 99.718355 -204.852819) (xy 99.718163 -204.852662)
        (xy 99.717942 -204.852544) (xy 99.666051 -204.81001) (xy 99.613937 -204.767357) (xy 99.613777 -204.767163) (xy 99.613586 -204.767006)
        (xy 99.570712 -204.71483) (xy 99.528198 -204.663167) (xy 99.528082 -204.662951) (xy 99.527921 -204.662755) (xy 99.496097 -204.603302)
        (xy 99.464432 -204.544251) (xy 99.464358 -204.544009) (xy 99.464242 -204.543792) (xy 99.444683 -204.479457) (xy 99.425092 -204.41518)
        (xy 99.425068 -204.414935) (xy 99.424994 -204.414693) (xy 99.41834 -204.347549) (xy 99.415046 -204.314557) (xy 99.415046 -204.314309)
        (xy 99.411687 -204.280418) (xy 99.414956 -204.247017) (xy 99.395909 -189.924072) (xy 93.395 -189.915929) (xy 93.395 -191.192501)
        (xy 94.852106 -191.192501) (xy 95.068228 -190.825742) (xy 95.528105 -190.585062) (xy 96.026098 -190.438725) (xy 96.543071 -190.392352)
        (xy 97.059159 -190.447727) (xy 97.554526 -190.602721) (xy 97.971772 -190.825742) (xy 98.187894 -191.192501) (xy 96.52 -192.860395)
        (xy 94.852106 -191.192501) (xy 93.395 -191.192501) (xy 93.395 -193.016929) (xy 93.872352 -193.016929) (xy 93.927727 -192.500841)
        (xy 94.082721 -192.005474) (xy 94.305742 -191.588228) (xy 94.672501 -191.372106) (xy 96.340395 -193.04) (xy 96.699605 -193.04)
        (xy 98.367499 -191.372106) (xy 98.734258 -191.588228) (xy 98.974938 -192.048105) (xy 99.121275 -192.546098) (xy 99.167648 -193.063071)
        (xy 99.112273 -193.579159) (xy 98.957279 -194.074526) (xy 98.734258 -194.491772) (xy 98.367499 -194.707894) (xy 96.699605 -193.04)
        (xy 96.340395 -193.04) (xy 94.672501 -194.707894) (xy 94.305742 -194.491772) (xy 94.065062 -194.031895) (xy 93.918725 -193.533902)
        (xy 93.872352 -193.016929) (xy 93.395 -193.016929) (xy 93.395 -194.887499) (xy 94.852106 -194.887499) (xy 96.52 -193.219605)
        (xy 98.187894 -194.887499) (xy 97.971772 -195.254258) (xy 97.511895 -195.494938) (xy 97.013902 -195.641275) (xy 96.496929 -195.687648)
        (xy 95.980841 -195.632273) (xy 95.485474 -195.477279) (xy 95.068228 -195.254258) (xy 94.852106 -194.887499) (xy 93.395 -194.887499)
        (xy 93.395 -240.836926) (xy 119.44454 -240.836926) (xy 119.44454 -240.103074) (xy 119.587707 -239.383323) (xy 119.86854 -238.705333)
        (xy 120.276246 -238.095158) (xy 120.795158 -237.576246) (xy 121.405333 -237.16854) (xy 122.083323 -236.887707) (xy 122.803074 -236.74454)
        (xy 123.536926 -236.74454) (xy 124.256677 -236.887707) (xy 124.934667 -237.16854) (xy 125.544842 -237.576246) (xy 126.063754 -238.095158)
        (xy 126.47146 -238.705333) (xy 126.752293 -239.383323) (xy 126.89546 -240.103074) (xy 126.89546 -240.45) (xy 135.195911 -240.45)
        (xy 135.284846 -239.46185) (xy 135.548793 -238.50546) (xy 135.979268 -237.61157) (xy 136.562435 -236.808909) (xy 137.279552 -236.123275)
        (xy 138.107569 -235.576706) (xy 139.019872 -235.186769) (xy 139.987141 -234.965996) (xy 140.978286 -234.921483) (xy 141.961451 -235.054662)
        (xy 142.905036 -235.361251) (xy 143.778713 -235.831397) (xy 144.554402 -236.449989) (xy 145.207172 -237.197144) (xy 145.716042 -238.048849)
        (xy 146.064656 -238.977728) (xy 146.24181 -239.953928) (xy 146.24181 -240.648258) (xy 156.244075 -240.648258) (xy 156.244075 -239.951742)
        (xy 156.379958 -239.268609) (xy 156.646504 -238.625111) (xy 157.033468 -238.045979) (xy 157.525979 -237.553468) (xy 158.105111 -237.166504)
        (xy 158.748609 -236.899958) (xy 159.431742 -236.764075) (xy 160.128258 -236.764075) (xy 160.811391 -236.899958) (xy 161.454889 -237.166504)
        (xy 162.034021 -237.553468) (xy 162.526532 -238.045979) (xy 162.913496 -238.625111) (xy 163.180042 -239.268609) (xy 163.315925 -239.951742)
        (xy 163.315925 -240.648258) (xy 163.180042 -241.331391) (xy 162.913496 -241.974889) (xy 162.526532 -242.554021) (xy 162.034021 -243.046532)
        (xy 161.454889 -243.433496) (xy 160.811391 -243.700042) (xy 160.128258 -243.835925) (xy 159.431742 -243.835925) (xy 158.748609 -243.700042)
        (xy 158.105111 -243.433496) (xy 157.525979 -243.046532) (xy 157.033468 -242.554021) (xy 156.646504 -241.974889) (xy 156.379958 -241.331391)
        (xy 156.244075 -240.648258) (xy 146.24181 -240.648258) (xy 146.24181 -240.946072) (xy 146.064656 -241.922272) (xy 145.716042 -242.851151)
        (xy 145.207172 -243.702856) (xy 144.554402 -244.450011) (xy 143.778713 -245.068603) (xy 142.905036 -245.538749) (xy 141.961451 -245.845338)
        (xy 140.978286 -245.978517) (xy 139.987141 -245.934004) (xy 139.019872 -245.713231) (xy 138.107569 -245.323294) (xy 137.279552 -244.776725)
        (xy 136.562435 -244.091091) (xy 135.979268 -243.28843) (xy 135.548793 -242.39454) (xy 135.284846 -241.43815) (xy 135.195911 -240.45)
        (xy 126.89546 -240.45) (xy 126.89546 -240.836926) (xy 126.752293 -241.556677) (xy 126.47146 -242.234667) (xy 126.063754 -242.844842)
        (xy 125.544842 -243.363754) (xy 124.934667 -243.77146) (xy 124.256677 -244.052293) (xy 123.536926 -244.19546) (xy 122.803074 -244.19546)
        (xy 122.083323 -244.052293) (xy 121.405333 -243.77146) (xy 120.795158 -243.363754) (xy 120.276246 -242.844842) (xy 119.86854 -242.234667)
        (xy 119.587707 -241.556677) (xy 119.44454 -240.836926) (xy 93.395 -240.836926) (xy 93.395 -276.86) (xy 107.261686 -276.86)
        (xy 107.265001 -276.826343) (xy 107.265 -260.383647) (xy 107.261686 -260.35) (xy 107.274912 -260.215717) (xy 107.314081 -260.086594)
        (xy 107.377688 -259.967593) (xy 107.463289 -259.863289) (xy 107.567593 -259.777688) (xy 107.686594 -259.714081) (xy 107.815717 -259.674912)
        (xy 107.95 -259.661686) (xy 107.983647 -259.665) (xy 173.956353 -259.665) (xy 173.99 -259.661686) (xy 174.124283 -259.674912)
        (xy 174.253406 -259.714081) (xy 174.372407 -259.777688) (xy 174.476711 -259.863289) (xy 174.562312 -259.967593) (xy 174.625919 -260.086594)
        (xy 174.665088 -260.215717) (xy 174.675 -260.316353) (xy 174.675 -260.316354) (xy 174.678314 -260.35) (xy 174.675 -260.383647)
        (xy 174.675 -276.826353) (xy 174.678314 -276.86) (xy 174.665088 -276.994283) (xy 174.625919 -277.123406) (xy 174.562312 -277.242407)
        (xy 174.476711 -277.346711) (xy 174.372407 -277.432312) (xy 174.253406 -277.495919) (xy 174.124283 -277.535088) (xy 174.023647 -277.545)
        (xy 173.99 -277.548314) (xy 173.956353 -277.545) (xy 107.983647 -277.545) (xy 107.95 -277.548314) (xy 107.916353 -277.545)
        (xy 107.815717 -277.535088) (xy 107.686594 -277.495919) (xy 107.567593 -277.432312) (xy 107.463289 -277.346711) (xy 107.377688 -277.242407)
        (xy 107.314081 -277.123406) (xy 107.274912 -276.994283) (xy 107.261686 -276.86) (xy 93.395 -276.86) (xy 93.395 -281.489501)
        (xy 94.852106 -281.489501) (xy 95.068228 -281.122742) (xy 95.528105 -280.882062) (xy 96.026098 -280.735725) (xy 96.543071 -280.689352)
        (xy 97.059159 -280.744727) (xy 97.554526 -280.899721) (xy 97.971772 -281.122742) (xy 98.113056 -281.362501) (xy 185.022106 -281.362501)
        (xy 185.238228 -280.995742) (xy 185.698105 -280.755062) (xy 186.196098 -280.608725) (xy 186.713071 -280.562352) (xy 187.229159 -280.617727)
        (xy 187.724526 -280.772721) (xy 188.141772 -280.995742) (xy 188.357894 -281.362501) (xy 186.69 -283.030395) (xy 185.022106 -281.362501)
        (xy 98.113056 -281.362501) (xy 98.187894 -281.489501) (xy 96.52 -283.157395) (xy 94.852106 -281.489501) (xy 93.395 -281.489501)
        (xy 93.395 -283.313929) (xy 93.872352 -283.313929) (xy 93.927727 -282.797841) (xy 94.082721 -282.302474) (xy 94.305742 -281.885228)
        (xy 94.672501 -281.669106) (xy 96.340395 -283.337) (xy 96.699605 -283.337) (xy 98.367499 -281.669106) (xy 98.734258 -281.885228)
        (xy 98.974938 -282.345105) (xy 99.121275 -282.843098) (xy 99.152116 -283.186929) (xy 184.042352 -283.186929) (xy 184.097727 -282.670841)
        (xy 184.252721 -282.175474) (xy 184.475742 -281.758228) (xy 184.842501 -281.542106) (xy 186.510395 -283.21) (xy 186.869605 -283.21)
        (xy 188.537499 -281.542106) (xy 188.904258 -281.758228) (xy 189.144938 -282.218105) (xy 189.291275 -282.716098) (xy 189.337648 -283.233071)
        (xy 189.282273 -283.749159) (xy 189.127279 -284.244526) (xy 188.904258 -284.661772) (xy 188.537499 -284.877894) (xy 186.869605 -283.21)
        (xy 186.510395 -283.21) (xy 184.842501 -284.877894) (xy 184.475742 -284.661772) (xy 184.235062 -284.201895) (xy 184.088725 -283.703902)
        (xy 184.042352 -283.186929) (xy 99.152116 -283.186929) (xy 99.167648 -283.360071) (xy 99.112273 -283.876159) (xy 98.957279 -284.371526)
        (xy 98.734258 -284.788772) (xy 98.367499 -285.004894) (xy 96.699605 -283.337) (xy 96.340395 -283.337) (xy 94.672501 -285.004894)
        (xy 94.305742 -284.788772) (xy 94.065062 -284.328895) (xy 93.918725 -283.830902) (xy 93.872352 -283.313929) (xy 93.395 -283.313929)
        (xy 93.395 -285.184499) (xy 94.852106 -285.184499) (xy 96.52 -283.516605) (xy 98.060894 -285.057499) (xy 185.022106 -285.057499)
        (xy 186.69 -283.389605) (xy 188.357894 -285.057499) (xy 188.141772 -285.424258) (xy 187.681895 -285.664938) (xy 187.183902 -285.811275)
        (xy 186.666929 -285.857648) (xy 186.150841 -285.802273) (xy 185.655474 -285.647279) (xy 185.238228 -285.424258) (xy 185.022106 -285.057499)
        (xy 98.060894 -285.057499) (xy 98.187894 -285.184499) (xy 97.971772 -285.551258) (xy 97.511895 -285.791938) (xy 97.013902 -285.938275)
        (xy 96.496929 -285.984648) (xy 95.980841 -285.929273) (xy 95.485474 -285.774279) (xy 95.068228 -285.551258) (xy 94.852106 -285.184499)
        (xy 93.395 -285.184499) (xy 93.395 -286.335) (xy 189.815 -286.335)
      )
    )
  )
  (zone (net 1) (net_name GNDPWR) (layer B.Cu) (tstamp 5F24411B) (hatch edge 0.508)
    (connect_pads (clearance 0.508))
    (min_thickness 0.254)
    (fill yes (arc_segments 32) (thermal_gap 0.508) (thermal_bridge_width 0.508))
    (polygon
      (pts
        (xy 190.373 -188.976) (xy 92.583 -189.357) (xy 92.837 -286.893) (xy 190.5 -287.02)
      )
    )
    (filled_polygon
      (pts
        (xy 189.815001 -189.915) (xy 150.105 -189.915) (xy 150.105 -191.192501) (xy 185.022106 -191.192501) (xy 185.238228 -190.825742)
        (xy 185.698105 -190.585062) (xy 186.196098 -190.438725) (xy 186.713071 -190.392352) (xy 187.229159 -190.447727) (xy 187.724526 -190.602721)
        (xy 188.141772 -190.825742) (xy 188.357894 -191.192501) (xy 186.69 -192.860395) (xy 185.022106 -191.192501) (xy 150.105 -191.192501)
        (xy 150.105 -193.016929) (xy 184.042352 -193.016929) (xy 184.097727 -192.500841) (xy 184.252721 -192.005474) (xy 184.475742 -191.588228)
        (xy 184.842501 -191.372106) (xy 186.510395 -193.04) (xy 186.869605 -193.04) (xy 188.537499 -191.372106) (xy 188.904258 -191.588228)
        (xy 189.144938 -192.048105) (xy 189.291275 -192.546098) (xy 189.337648 -193.063071) (xy 189.282273 -193.579159) (xy 189.127279 -194.074526)
        (xy 188.904258 -194.491772) (xy 188.537499 -194.707894) (xy 186.869605 -193.04) (xy 186.510395 -193.04) (xy 184.842501 -194.707894)
        (xy 184.475742 -194.491772) (xy 184.235062 -194.031895) (xy 184.088725 -193.533902) (xy 184.042352 -193.016929) (xy 150.105 -193.016929)
        (xy 150.105 -194.887499) (xy 185.022106 -194.887499) (xy 186.69 -193.219605) (xy 188.357894 -194.887499) (xy 188.141772 -195.254258)
        (xy 187.681895 -195.494938) (xy 187.183902 -195.641275) (xy 186.666929 -195.687648) (xy 186.150841 -195.632273) (xy 185.655474 -195.477279)
        (xy 185.238228 -195.254258) (xy 185.022106 -194.887499) (xy 150.105 -194.887499) (xy 150.105 -204.216152) (xy 150.108313 -204.249582)
        (xy 150.105 -204.28343) (xy 150.105 -204.283647) (xy 150.101609 -204.318079) (xy 150.095169 -204.383872) (xy 150.095109 -204.38407)
        (xy 150.095088 -204.384283) (xy 150.075149 -204.450013) (xy 150.056078 -204.513019) (xy 150.055982 -204.5132) (xy 150.055919 -204.513406)
        (xy 150.023495 -204.574068) (xy 149.992544 -204.632058) (xy 149.992413 -204.632217) (xy 149.992312 -204.632407) (xy 149.948494 -204.685798)
        (xy 149.907006 -204.736414) (xy 149.906849 -204.736543) (xy 149.906711 -204.736711) (xy 149.853356 -204.780499) (xy 149.802754 -204.822079)
        (xy 149.802573 -204.822176) (xy 149.802407 -204.822312) (xy 149.74186 -204.854675) (xy 149.683792 -204.885758) (xy 149.683595 -204.885818)
        (xy 149.683406 -204.885919) (xy 149.618093 -204.905731) (xy 149.554693 -204.925006) (xy 149.554486 -204.925027) (xy 149.554283 -204.925088)
        (xy 149.486707 -204.931744) (xy 149.454063 -204.934979) (xy 149.453859 -204.934979) (xy 149.42 -204.938314) (xy 149.386557 -204.93502)
        (xy 100.134309 -204.964979) (xy 100.100915 -204.968313) (xy 100.067019 -204.96502) (xy 100.06677 -204.96502) (xy 100.03319 -204.961733)
        (xy 99.966615 -204.955265) (xy 99.966378 -204.955193) (xy 99.966128 -204.955169) (xy 99.901179 -204.93551) (xy 99.83744 -204.916268)
        (xy 99.837222 -204.916152) (xy 99.836981 -204.916079) (xy 99.777135 -204.884137) (xy 99.718355 -204.852819) (xy 99.718163 -204.852662)
        (xy 99.717942 -204.852544) (xy 99.666051 -204.81001) (xy 99.613937 -204.767357) (xy 99.613777 -204.767163) (xy 99.613586 -204.767006)
        (xy 99.570712 -204.71483) (xy 99.528198 -204.663167) (xy 99.528082 -204.662951) (xy 99.527921 -204.662755) (xy 99.496097 -204.603302)
        (xy 99.464432 -204.544251) (xy 99.464358 -204.544009) (xy 99.464242 -204.543792) (xy 99.444683 -204.479457) (xy 99.425092 -204.41518)
        (xy 99.425068 -204.414935) (xy 99.424994 -204.414693) (xy 99.41834 -204.347549) (xy 99.415046 -204.314557) (xy 99.415046 -204.314309)
        (xy 99.411687 -204.280418) (xy 99.414956 -204.247017) (xy 99.395909 -189.924072) (xy 93.395 -189.915929) (xy 93.395 -191.192501)
        (xy 94.852106 -191.192501) (xy 95.068228 -190.825742) (xy 95.528105 -190.585062) (xy 96.026098 -190.438725) (xy 96.543071 -190.392352)
        (xy 97.059159 -190.447727) (xy 97.554526 -190.602721) (xy 97.971772 -190.825742) (xy 98.187894 -191.192501) (xy 96.52 -192.860395)
        (xy 94.852106 -191.192501) (xy 93.395 -191.192501) (xy 93.395 -193.016929) (xy 93.872352 -193.016929) (xy 93.927727 -192.500841)
        (xy 94.082721 -192.005474) (xy 94.305742 -191.588228) (xy 94.672501 -191.372106) (xy 96.340395 -193.04) (xy 96.699605 -193.04)
        (xy 98.367499 -191.372106) (xy 98.734258 -191.588228) (xy 98.974938 -192.048105) (xy 99.121275 -192.546098) (xy 99.167648 -193.063071)
        (xy 99.112273 -193.579159) (xy 98.957279 -194.074526) (xy 98.734258 -194.491772) (xy 98.367499 -194.707894) (xy 96.699605 -193.04)
        (xy 96.340395 -193.04) (xy 94.672501 -194.707894) (xy 94.305742 -194.491772) (xy 94.065062 -194.031895) (xy 93.918725 -193.533902)
        (xy 93.872352 -193.016929) (xy 93.395 -193.016929) (xy 93.395 -194.887499) (xy 94.852106 -194.887499) (xy 96.52 -193.219605)
        (xy 98.187894 -194.887499) (xy 97.971772 -195.254258) (xy 97.511895 -195.494938) (xy 97.013902 -195.641275) (xy 96.496929 -195.687648)
        (xy 95.980841 -195.632273) (xy 95.485474 -195.477279) (xy 95.068228 -195.254258) (xy 94.852106 -194.887499) (xy 93.395 -194.887499)
        (xy 93.395 -240.836926) (xy 119.44454 -240.836926) (xy 119.44454 -240.103074) (xy 119.587707 -239.383323) (xy 119.86854 -238.705333)
        (xy 120.276246 -238.095158) (xy 120.795158 -237.576246) (xy 121.405333 -237.16854) (xy 122.083323 -236.887707) (xy 122.803074 -236.74454)
        (xy 123.536926 -236.74454) (xy 124.256677 -236.887707) (xy 124.934667 -237.16854) (xy 125.544842 -237.576246) (xy 126.063754 -238.095158)
        (xy 126.47146 -238.705333) (xy 126.752293 -239.383323) (xy 126.89546 -240.103074) (xy 126.89546 -240.45) (xy 135.195911 -240.45)
        (xy 135.284846 -239.46185) (xy 135.548793 -238.50546) (xy 135.979268 -237.61157) (xy 136.562435 -236.808909) (xy 137.279552 -236.123275)
        (xy 138.107569 -235.576706) (xy 139.019872 -235.186769) (xy 139.987141 -234.965996) (xy 140.978286 -234.921483) (xy 141.961451 -235.054662)
        (xy 142.905036 -235.361251) (xy 143.778713 -235.831397) (xy 144.554402 -236.449989) (xy 145.207172 -237.197144) (xy 145.716042 -238.048849)
        (xy 146.064656 -238.977728) (xy 146.24181 -239.953928) (xy 146.24181 -240.648258) (xy 156.244075 -240.648258) (xy 156.244075 -239.951742)
        (xy 156.379958 -239.268609) (xy 156.646504 -238.625111) (xy 157.033468 -238.045979) (xy 157.525979 -237.553468) (xy 158.105111 -237.166504)
        (xy 158.748609 -236.899958) (xy 159.431742 -236.764075) (xy 160.128258 -236.764075) (xy 160.811391 -236.899958) (xy 161.454889 -237.166504)
        (xy 162.034021 -237.553468) (xy 162.526532 -238.045979) (xy 162.913496 -238.625111) (xy 163.180042 -239.268609) (xy 163.315925 -239.951742)
        (xy 163.315925 -240.648258) (xy 163.180042 -241.331391) (xy 162.913496 -241.974889) (xy 162.526532 -242.554021) (xy 162.034021 -243.046532)
        (xy 161.454889 -243.433496) (xy 160.811391 -243.700042) (xy 160.128258 -243.835925) (xy 159.431742 -243.835925) (xy 158.748609 -243.700042)
        (xy 158.105111 -243.433496) (xy 157.525979 -243.046532) (xy 157.033468 -242.554021) (xy 156.646504 -241.974889) (xy 156.379958 -241.331391)
        (xy 156.244075 -240.648258) (xy 146.24181 -240.648258) (xy 146.24181 -240.946072) (xy 146.064656 -241.922272) (xy 145.716042 -242.851151)
        (xy 145.207172 -243.702856) (xy 144.554402 -244.450011) (xy 143.778713 -245.068603) (xy 142.905036 -245.538749) (xy 141.961451 -245.845338)
        (xy 140.978286 -245.978517) (xy 139.987141 -245.934004) (xy 139.019872 -245.713231) (xy 138.107569 -245.323294) (xy 137.279552 -244.776725)
        (xy 136.562435 -244.091091) (xy 135.979268 -243.28843) (xy 135.548793 -242.39454) (xy 135.284846 -241.43815) (xy 135.195911 -240.45)
        (xy 126.89546 -240.45) (xy 126.89546 -240.836926) (xy 126.752293 -241.556677) (xy 126.47146 -242.234667) (xy 126.063754 -242.844842)
        (xy 125.544842 -243.363754) (xy 124.934667 -243.77146) (xy 124.256677 -244.052293) (xy 123.536926 -244.19546) (xy 122.803074 -244.19546)
        (xy 122.083323 -244.052293) (xy 121.405333 -243.77146) (xy 120.795158 -243.363754) (xy 120.276246 -242.844842) (xy 119.86854 -242.234667)
        (xy 119.587707 -241.556677) (xy 119.44454 -240.836926) (xy 93.395 -240.836926) (xy 93.395 -276.86) (xy 107.261686 -276.86)
        (xy 107.265001 -276.826343) (xy 107.265 -260.383647) (xy 107.261686 -260.35) (xy 107.274912 -260.215717) (xy 107.314081 -260.086594)
        (xy 107.377688 -259.967593) (xy 107.463289 -259.863289) (xy 107.567593 -259.777688) (xy 107.686594 -259.714081) (xy 107.815717 -259.674912)
        (xy 107.95 -259.661686) (xy 107.983647 -259.665) (xy 173.956353 -259.665) (xy 173.99 -259.661686) (xy 174.124283 -259.674912)
        (xy 174.253406 -259.714081) (xy 174.372407 -259.777688) (xy 174.476711 -259.863289) (xy 174.562312 -259.967593) (xy 174.625919 -260.086594)
        (xy 174.665088 -260.215717) (xy 174.675 -260.316353) (xy 174.675 -260.316354) (xy 174.678314 -260.35) (xy 174.675 -260.383647)
        (xy 174.675 -276.826353) (xy 174.678314 -276.86) (xy 174.665088 -276.994283) (xy 174.625919 -277.123406) (xy 174.562312 -277.242407)
        (xy 174.476711 -277.346711) (xy 174.372407 -277.432312) (xy 174.253406 -277.495919) (xy 174.124283 -277.535088) (xy 174.023647 -277.545)
        (xy 173.99 -277.548314) (xy 173.956353 -277.545) (xy 107.983647 -277.545) (xy 107.95 -277.548314) (xy 107.916353 -277.545)
        (xy 107.815717 -277.535088) (xy 107.686594 -277.495919) (xy 107.567593 -277.432312) (xy 107.463289 -277.346711) (xy 107.377688 -277.242407)
        (xy 107.314081 -277.123406) (xy 107.274912 -276.994283) (xy 107.261686 -276.86) (xy 93.395 -276.86) (xy 93.395 -281.489501)
        (xy 94.852106 -281.489501) (xy 95.068228 -281.122742) (xy 95.528105 -280.882062) (xy 96.026098 -280.735725) (xy 96.543071 -280.689352)
        (xy 97.059159 -280.744727) (xy 97.554526 -280.899721) (xy 97.971772 -281.122742) (xy 98.113056 -281.362501) (xy 185.022106 -281.362501)
        (xy 185.238228 -280.995742) (xy 185.698105 -280.755062) (xy 186.196098 -280.608725) (xy 186.713071 -280.562352) (xy 187.229159 -280.617727)
        (xy 187.724526 -280.772721) (xy 188.141772 -280.995742) (xy 188.357894 -281.362501) (xy 186.69 -283.030395) (xy 185.022106 -281.362501)
        (xy 98.113056 -281.362501) (xy 98.187894 -281.489501) (xy 96.52 -283.157395) (xy 94.852106 -281.489501) (xy 93.395 -281.489501)
        (xy 93.395 -283.313929) (xy 93.872352 -283.313929) (xy 93.927727 -282.797841) (xy 94.082721 -282.302474) (xy 94.305742 -281.885228)
        (xy 94.672501 -281.669106) (xy 96.340395 -283.337) (xy 96.699605 -283.337) (xy 98.367499 -281.669106) (xy 98.734258 -281.885228)
        (xy 98.974938 -282.345105) (xy 99.121275 -282.843098) (xy 99.152116 -283.186929) (xy 184.042352 -283.186929) (xy 184.097727 -282.670841)
        (xy 184.252721 -282.175474) (xy 184.475742 -281.758228) (xy 184.842501 -281.542106) (xy 186.510395 -283.21) (xy 186.869605 -283.21)
        (xy 188.537499 -281.542106) (xy 188.904258 -281.758228) (xy 189.144938 -282.218105) (xy 189.291275 -282.716098) (xy 189.337648 -283.233071)
        (xy 189.282273 -283.749159) (xy 189.127279 -284.244526) (xy 188.904258 -284.661772) (xy 188.537499 -284.877894) (xy 186.869605 -283.21)
        (xy 186.510395 -283.21) (xy 184.842501 -284.877894) (xy 184.475742 -284.661772) (xy 184.235062 -284.201895) (xy 184.088725 -283.703902)
        (xy 184.042352 -283.186929) (xy 99.152116 -283.186929) (xy 99.167648 -283.360071) (xy 99.112273 -283.876159) (xy 98.957279 -284.371526)
        (xy 98.734258 -284.788772) (xy 98.367499 -285.004894) (xy 96.699605 -283.337) (xy 96.340395 -283.337) (xy 94.672501 -285.004894)
        (xy 94.305742 -284.788772) (xy 94.065062 -284.328895) (xy 93.918725 -283.830902) (xy 93.872352 -283.313929) (xy 93.395 -283.313929)
        (xy 93.395 -285.184499) (xy 94.852106 -285.184499) (xy 96.52 -283.516605) (xy 98.060894 -285.057499) (xy 185.022106 -285.057499)
        (xy 186.69 -283.389605) (xy 188.357894 -285.057499) (xy 188.141772 -285.424258) (xy 187.681895 -285.664938) (xy 187.183902 -285.811275)
        (xy 186.666929 -285.857648) (xy 186.150841 -285.802273) (xy 185.655474 -285.647279) (xy 185.238228 -285.424258) (xy 185.022106 -285.057499)
        (xy 98.060894 -285.057499) (xy 98.187894 -285.184499) (xy 97.971772 -285.551258) (xy 97.511895 -285.791938) (xy 97.013902 -285.938275)
        (xy 96.496929 -285.984648) (xy 95.980841 -285.929273) (xy 95.485474 -285.774279) (xy 95.068228 -285.551258) (xy 94.852106 -285.184499)
        (xy 93.395 -285.184499) (xy 93.395 -286.335) (xy 189.815 -286.335)
      )
    )
  )
)
